{"free":"7364 MB","total":"16207 MB","usage":"45 %"}
{"free":"7362 MB","total":"16207 MB","usage":"45 %"}
{"free":"7356 MB","total":"16207 MB","usage":"45 %"}
{"free":"7350 MB","total":"16207 MB","usage":"45 %"}
{"free":"7344 MB","total":"16207 MB","usage":"45 %"}
{"free":"7343 MB","total":"16207 MB","usage":"45 %"}
{"free":"7363 MB","total":"16207 MB","usage":"45 %"}
{"free":"7340 MB","total":"16207 MB","usage":"45 %"}
